{
	"auth": {
		"opensesame288a8f90c": {
			"service": "Cognito",
			"providerPlugin": "awscloudformation",
			"dependsOn": []
		}
	},
	"api": {
		"opensesame2": {
			"service": "AppSync",
			"providerPlugin": "awscloudformation",
			"output": {
				"authConfig": {
					"additionalAuthenticationProviders": [],
					"defaultAuthentication": {
						"authenticationType": "AMAZON_COGNITO_USER_POOLS",
						"userPoolConfig": {
							"userPoolId": "authopensesame288a8f90c"
						}
					}
				}
			}
		}
	},
	"storage": {
		"FaceResources": {
			"service": "S3",
			"providerPlugin": "awscloudformation"
		}
	}
}